Assignment,Link
Assignment 1,https://chat.openai.com/share/89cd449a-4b00-42bb-9cd2-5df1c8b2e1fb
Assignment 2,https://chat.openai.com/share/554db6cc-8a4d-436d-95e3-55cebc61d952
Assignment 3,https://chat.openai.com/share/2d342f20-5caa-4191-9f42-5f04fef49c00
Assignment 4,https://chat.openai.com/share/ca1caee9-0489-42ea-987e-513e802986df
